\relax 
\providecommand\hyper@newdestlabel[2]{}
\catcode `"\active 
\providecommand\HyperFirstAtBeginDocument{\AtBeginDocument}
\HyperFirstAtBeginDocument{\ifx\hyper@anchor\@undefined
\global\let\oldcontentsline\contentsline
\gdef\contentsline#1#2#3#4{\oldcontentsline{#1}{#2}{#3}}
\global\let\oldnewlabel\newlabel
\gdef\newlabel#1#2{\newlabelxx{#1}#2}
\gdef\newlabelxx#1#2#3#4#5#6{\oldnewlabel{#1}{{#2}{#3}}}
\AtEndDocument{\ifx\hyper@anchor\@undefined
\let\contentsline\oldcontentsline
\let\newlabel\oldnewlabel
\fi}
\fi}
\global\let\hyper@last\relax 
\gdef\HyperFirstAtBeginDocument#1{#1}
\providecommand*\HyPL@Entry[1]{}
\bibstyle{ugost2008}
\HyPL@Entry{0<</S/D>>}
\select@language {russian}
\@writefile{toc}{\select@language {russian}}
\@writefile{lof}{\select@language {russian}}
\@writefile{lot}{\select@language {russian}}
\citation{wadler1992essence}
\citation{thompson1991type}
\newlabel{sec:afterwords}{{}{6}{Введение}{chapter*.3}{}}
\@writefile{toc}{\contentsline {chapter}{Введение}{6}{chapter*.3}}
\citation{abadi2012theory}
\@writefile{toc}{\contentsline {chapter}{\numberline {1}Изучение формализации ООП в программном средстве TOOP}{8}{chapter.1}}
\@writefile{lof}{\addvspace {10\p@ }}
\@writefile{lot}{\addvspace {10\p@ }}
\newlabel{chapter1}{{1}{8}{Изучение формализации ООП в программном средстве TOOP}{chapter.1}{}}
\@writefile{toc}{\contentsline {section}{\numberline {1.1}Общие положения теории объектов}{8}{section.1.1}}
\@writefile{toc}{\contentsline {subsection}{\numberline {1.1.1}Свойства объектно-ориентированного подхода}{8}{subsection.1.1.1}}
\citation{abadi2012theory}
\@writefile{toc}{\contentsline {subsection}{\numberline {1.1.2}Механизм повторного использования}{9}{subsection.1.1.2}}
\@writefile{toc}{\contentsline {subsection}{\numberline {1.1.3}Понятия ковариантности, контравариантности и инвариантности}{10}{subsection.1.1.3}}
\citation{abadi2012theory}
\@writefile{toc}{\contentsline {section}{\numberline {1.2}Основные понятия сигма-алгебры}{11}{section.1.2}}
\@writefile{toc}{\contentsline {subsection}{\numberline {1.2.1}Функции как объекты}{13}{subsection.1.2.1}}
\@writefile{toc}{\contentsline {subsection}{\numberline {1.2.2}Аргументы со значениями по умолчанию}{13}{subsection.1.2.2}}
\@writefile{toc}{\contentsline {subsection}{\numberline {1.2.3}Многоместные функции с именованными аргументами}{14}{subsection.1.2.3}}
\@writefile{toc}{\contentsline {section}{\numberline {1.3}Описание выбора системы управления репозиториями с кодом}{14}{section.1.3}}
\@writefile{toc}{\contentsline {section}{\numberline {1.4}Выводы}{15}{section.1.4}}
\@writefile{toc}{\contentsline {section}{\numberline {1.5}Цели и задачи НИР}{16}{section.1.5}}
\@writefile{toc}{\contentsline {chapter}{\numberline {2}Разработка синтаксиса типизированного объектно-ориентированного языка системы TOOP}{17}{chapter.2}}
\@writefile{lof}{\addvspace {10\p@ }}
\@writefile{lot}{\addvspace {10\p@ }}
\@writefile{toc}{\contentsline {section}{\numberline {2.1}Описание синтаксиса типизированного объектно-ориентированного языка системы TOOP}{17}{section.2.1}}
\@writefile{toc}{\contentsline {section}{\numberline {2.2}Описание формальной системы типизации}{17}{section.2.2}}
\@writefile{toc}{\contentsline {subsection}{\numberline {2.2.1}Типизация объектов}{17}{subsection.2.2.1}}
\@writefile{toc}{\contentsline {subsection}{\numberline {2.2.2}Типизация функций}{17}{subsection.2.2.2}}
\@writefile{toc}{\contentsline {chapter}{\numberline {3}Результаты проектирования усовершенствованного интерпретатора с поддержкой выбора уровня типизации}{18}{chapter.3}}
\@writefile{lof}{\addvspace {10\p@ }}
\@writefile{lot}{\addvspace {10\p@ }}
\@writefile{toc}{\contentsline {section}{\numberline {3.1}Выбор модели жизненного цикла}{18}{section.3.1}}
\@writefile{toc}{\contentsline {section}{\numberline {3.2}Выбор методологии проектирования}{18}{section.3.2}}
\@writefile{toc}{\contentsline {section}{\numberline {3.3}Описание разработанной схемы интерпретатора}{18}{section.3.3}}
\@writefile{toc}{\contentsline {chapter}{\numberline {4}Программная реализация спроектированного интерпретатора с поддержкой выбора уровня типизации}{19}{chapter.4}}
\@writefile{lof}{\addvspace {10\p@ }}
\@writefile{lot}{\addvspace {10\p@ }}
\@writefile{toc}{\contentsline {section}{\numberline {4.1}Описание Play Framework}{19}{section.4.1}}
\@writefile{toc}{\contentsline {section}{\numberline {4.2}Инъекция зависимостей}{19}{section.4.2}}
\@writefile{toc}{\contentsline {section}{\numberline {4.3}Спецификация кода}{19}{section.4.3}}
\@writefile{toc}{\contentsline {section}{\numberline {4.4}Встраивание разработанного интерпретатора}{19}{section.4.4}}
\@writefile{toc}{\contentsline {section}{\numberline {4.5}Тестирование кода}{19}{section.4.5}}
\@writefile{toc}{\contentsline {chapter}{Заключение}{21}{chapter*.4}}
\bibdata{chapters/biblio}
\bibcite{wadler1992essence}{1}
\bibcite{thompson1991type}{2}
\bibcite{abadi2012theory}{3}
\bibcite{fowler2004uml}{4}
\bibcite{davis1988strategy}{5}
\bibcite{pranam2018software}{6}
\bibcite{леви2014введение}{7}
\bibcite{hunt2014scala}{8}
\bibcite{hilton2013play}{9}
\bibcite{vanbrabant2008google}{10}
\bibcite{fowler2004inversion}{11}
\select@language {english}
\@writefile{toc}{\select@language {english}}
\@writefile{lof}{\select@language {english}}
\@writefile{lot}{\select@language {english}}
\select@language {english}
\@writefile{toc}{\select@language {english}}
\@writefile{lof}{\select@language {english}}
\@writefile{lot}{\select@language {english}}
\select@language {english}
\@writefile{toc}{\select@language {english}}
\@writefile{lof}{\select@language {english}}
\@writefile{lot}{\select@language {english}}
\select@language {english}
\@writefile{toc}{\select@language {english}}
\@writefile{lof}{\select@language {english}}
\@writefile{lot}{\select@language {english}}
\select@language {english}
\@writefile{toc}{\select@language {english}}
\@writefile{lof}{\select@language {english}}
\@writefile{lot}{\select@language {english}}
\select@language {english}
\@writefile{toc}{\select@language {english}}
\@writefile{lof}{\select@language {english}}
\@writefile{lot}{\select@language {english}}
\select@language {english}
\@writefile{toc}{\select@language {english}}
\@writefile{lof}{\select@language {english}}
\@writefile{lot}{\select@language {english}}
\select@language {english}
\@writefile{toc}{\select@language {english}}
\@writefile{lof}{\select@language {english}}
\@writefile{lot}{\select@language {english}}
\select@language {english}
\@writefile{toc}{\select@language {english}}
\@writefile{lof}{\select@language {english}}
\@writefile{lot}{\select@language {english}}
\select@language {english}
\@writefile{toc}{\select@language {english}}
\@writefile{lof}{\select@language {english}}
\@writefile{lot}{\select@language {english}}
\select@language {english}
\@writefile{toc}{\select@language {english}}
\@writefile{lof}{\select@language {english}}
\@writefile{lot}{\select@language {english}}
\select@language {russian}
\@writefile{toc}{\select@language {russian}}
\@writefile{lof}{\select@language {russian}}
\@writefile{lot}{\select@language {russian}}
\select@language {russian}
\@writefile{toc}{\select@language {russian}}
\@writefile{lof}{\select@language {russian}}
\@writefile{lot}{\select@language {russian}}
\select@language {russian}
\@writefile{toc}{\select@language {russian}}
\@writefile{lof}{\select@language {russian}}
\@writefile{lot}{\select@language {russian}}
\select@language {russian}
\@writefile{toc}{\select@language {russian}}
\@writefile{lof}{\select@language {russian}}
\@writefile{lot}{\select@language {russian}}
\select@language {russian}
\@writefile{toc}{\select@language {russian}}
\@writefile{lof}{\select@language {russian}}
\@writefile{lot}{\select@language {russian}}
\select@language {russian}
\@writefile{toc}{\select@language {russian}}
\@writefile{lof}{\select@language {russian}}
\@writefile{lot}{\select@language {russian}}
\select@language {russian}
\@writefile{toc}{\select@language {russian}}
\@writefile{lof}{\select@language {russian}}
\@writefile{lot}{\select@language {russian}}
\select@language {russian}
\@writefile{toc}{\select@language {russian}}
\@writefile{lof}{\select@language {russian}}
\@writefile{lot}{\select@language {russian}}
\select@language {russian}
\@writefile{toc}{\select@language {russian}}
\@writefile{lof}{\select@language {russian}}
\@writefile{lot}{\select@language {russian}}
\select@language {russian}
\@writefile{toc}{\select@language {russian}}
\@writefile{lof}{\select@language {russian}}
\@writefile{lot}{\select@language {russian}}
\select@language {russian}
\@writefile{toc}{\select@language {russian}}
\@writefile{lof}{\select@language {russian}}
\@writefile{lot}{\select@language {russian}}
